{
	"type": "minecraft:block",
	"pools": [
		{
			"name": "mystic_fungus_repress_pool",
			"rolls": 1,
			"entries": [
				{
					"type": "minecraft:item",
					"name": "magelight:mystic_fungus_repress"
				}
			]
		}
	]
}