{
	"type": "minecraft:block",
	"pools": [
		{
			"name": "socotra_log_pool",
			"rolls": 1,
			"entries": [
				{
					"type": "minecraft:item",
					"name": "magelight:socotra_log"
				}
			],
			"conditions":[
				{
					"condition": "minecraft:survives_explosion"
				}
			]
		}
	]
}