{
    "type": "minecraft:crafting_shaped",
    "pattern":
    [
        "WPM",
        "NSB",
        "LRp"
    ],
    "key":
    {
    	"W":
        {
        	"item": "minecraft:wheat_seeds"
        },
        "P":
        {
        	"item": "minecraft:ender_pearl" 
        },
        "M":
        {
            "item": "minecraft:glistering_melon_slice"
        },
        "N":
        {
        	"item": "minecraft:nether_wart"
        },
        "S":
        {
        	"item": "minecraft:wither_skeleton_skull"
        },
        "B":
        {
        	"item": "minecraft:cocoa_beans"
        },
        "L":
        {
        	"item": "minecraft:lapis_block"
        },
        "R":
        {
        	"item": "minecraft:redstone_block"
        },
        "p":
        {
        	"item": "minecraft:pumpkin"
        }
    },
    "result":
    {
        "item": "magelight:mystic_fungus_dissolve",
        "count": 1
    }
}