{
    "type": "minecraft:crafting_shaped",
    "pattern":
    [
        "wrw",
        "igi",
        "wrw"
    ],
    "key":
    {
        "i":
        {
        	"item": "minecraft:iron_block" 
        },
        "r":
        {
        	"item": "minecraft:redstone_block"
        },
        "w":
        {
            "item": "magelight:socotra_planks"
        },
        "g":
        {
        	"item": "magelight:mystic_gem" 
        }
    },
    "result":
    {
        "item": "magelight:mystic_generator",
        "count": 1
    }
}