{
    "type": "minecraft:crafting_shaped",
    "pattern":
    [
        "w  ",
        "w  ",
        "   "
    ],
    "key":
    {
        "w":
        {
            "item": "magelight:socotra_planks"
        }
    },
    "result":
    {
        "item": "magelight:socotra_stick",
        "count": 4
    }
}