{
	"parent": "block/cube",
	"textures": {
		"particle": "magelight:block/mystic_generator_side",
		"down":  	"magelight:block/mystic_generator_bottom",
        "up":  		"magelight:block/mystic_generator_top",
        "north": 	"magelight:block/mystic_generator_front_powered",
        "south": 	"magelight:block/mystic_generator_side",
        "east": 	"magelight:block/mystic_generator_side",
        "west": 	"magelight:block/mystic_generator_side"
	}
}