{
    "variants": {
    	"facing=north,age=0": { "model": "magelight:block/mystic_fungus_stage0", y: 180 },
    	"facing=south,age=0": { "model": "magelight:block/mystic_fungus_stage0"},
    	"facing=west,age=0": { "model": "magelight:block/mystic_fungus_stage0", y:  90},
    	"facing=east,age=0": { "model": "magelight:block/mystic_fungus_stage0", y: 270},
    	"facing=north,age=1": { "model": "magelight:block/mystic_fungus_stage1", y: 180 },
    	"facing=south,age=1": { "model": "magelight:block/mystic_fungus_stage1"},
    	"facing=west,age=1": { "model": "magelight:block/mystic_fungus_stage1", y: 90},
    	"facing=east,age=1": { "model": "magelight:block/mystic_fungus_stage1", y: 270},
    	"facing=north,age=2": { "model": "magelight:block/mystic_fungus_solid_stage2", y: 180 },
    	"facing=south,age=2": { "model": "magelight:block/mystic_fungus_solid_stage2"},
    	"facing=west,age=2": { "model": "magelight:block/mystic_fungus_solid_stage2", y: 90},
    	"facing=east,age=2": { "model": "magelight:block/mystic_fungus_solid_stage2", y: 270}
    }
}